{
  "adventures": [
    {
      "title": "Haunted House",
      "author": "Michael Hartman",
      "version": 1.0,
      "published": "2018-08-22T12:00:00.000Z",
      "_links": {
        "self": {
          "href": "/adventures/2"
        }
      }
    },
    {
      "title": "Police Escape",
      "author": "Michael Hartman",
      "version": 1.0,
      "published": "2018-08-22T11:00:00.000Z",
      "_links": {
        "self": {
          "href": "/adventures/1"
        }
      }
    }
  ],
  "_links": {
    "first": {
      "href": "/adventures?page=0&size=2"
    },
    "prev": {
      "href": "/adventures?page=0&size=2"
    },
    "self": {
      "href": "/adventures"
    },
    "next": {
      "href": "/adventures?page=2&size=2"
    },
    "last": {
      "href": "/adventures?page=2&size=2"
    }
  },
  "page": {
    "size": 2,
    "totalElements": 5,
    "totalPages": 3,
    "number": 1
  }
}